template_version,1.2,Ignore this row
data_type,#,Set data type as # % or a custom suffix
trend_year_start,2011,Set the year range for the start of trend calculation
trend_year_end,2011,Set the year range for the end of trend calculation
"Census Id","Boundary Name","Year","Value"
"Transcona","Transcona","2011","4.04000000000000000000"
"Assiniboine South","Assiniboine South","2011","4.08000000000000000000"
"Downtown","Downtown","2011","21.35000000000000000000"
"Fort Garry","Fort Garry","2011","5.72000000000000000000"
"Inkster","Inkster","2011","4.23000000000000000000"
"Point Douglas","Point Douglas","2011","6.32000000000000000000"
"River East","River East","2011","4.81000000000000000000"
"River Heights","River Heights","2011","12.83000000000000000000"
"Seven Oaks","Seven Oaks","2011","3.31000000000000000000"
"St. Boniface","St. Boniface","2011","7.40000000000000000000"
"St. James - Assiniboia","St. James - Assiniboia","2011","7.07000000000000000000"
"St. Vital","St. Vital","2011","5.62000000000000000000"
"River Heights","River Heights","2006","11.87000000000000000000"
"Transcona","Transcona","2006","4.10000000000000000000"
"St. Vital","St. Vital","2006","5.12000000000000000000"
"St. James - Assiniboia","St. James - Assiniboia","2006","7.09000000000000000000"
"St. Boniface","St. Boniface","2006","9.44000000000000000000"
"Seven Oaks","Seven Oaks","2006","3.49000000000000000000"
"River East","River East","2006","5.87000000000000000000"
"Point Douglas","Point Douglas","2006","8.24000000000000000000"
"Inkster","Inkster","2006","4.34000000000000000000"
"Fort Garry","Fort Garry","2006","6.19000000000000000000"
"Downtown","Downtown","2006","21.78000000000000000000"
"Assiniboine South","Assiniboine South","2006","3.26000000000000000000"
"Downtown","Downtown","2001","21.44000000000000000000"
"Assiniboine South","Assiniboine South","2001","3.45000000000000000000"
"Fort Garry","Fort Garry","2001","6.03000000000000000000"
"Inkster","Inkster","2001","4.90000000000000000000"
"Point Douglas","Point Douglas","2001","7.11000000000000000000"
"River East","River East","2001","5.32000000000000000000"
"River Heights","River Heights","2001","11.60000000000000000000"
"Seven Oaks","Seven Oaks","2001","3.21000000000000000000"
"St. Boniface","St. Boniface","2001","10.41000000000000000000"
"St. James - Assiniboia","St. James - Assiniboia","2001","7.06000000000000000000"
"St. Vital","St. Vital","2001","5.17000000000000000000"
"Transcona","Transcona","2001","5.44000000000000000000"
